{
  "version": "1.0",
  "defaultProvider": "cdnjs",
  "libraries": [
    {
      "library": "Chart.js@2.9.3",
      "destination": "wwwroot/lib/Chart.js/",
      "files": [
        "Chart.css",
        "Chart.js",
        "Chart.min.css",
        "Chart.min.js"
      ]
    },
    {
      "library": "cropperjs@1.5.9",
      "destination": "wwwroot/lib/cropperjs/"
    },
    {
      "library": "mdbootstrap@4.19.1",
      "destination": "wwwroot/lib/mdbootstrap/",
      "files": [
        "js/mdb.min.js",
        "css/mdb.min.css"
      ]
    }
  ]
}